cpu_turbo.vcd
$comment
Copyright (C) 2017  Intel Corporation. All rights reserved.
Your use of Intel Corporation's design tools, logic functions 
and other software and tools, and its AMPP partner logic 
functions, and any output files from any of the foregoing 
(including device programming or simulation files), and any 
associated documentation or information are expressly subject 
to the terms and conditions of the Intel Program License 
Subscription Agreement, the Intel Quartus Prime License Agreement,
the Intel MegaCore Function License Agreement, or other 
applicable license agreement, including, without limitation, 
that your use is for the sole purpose of programming logic 
devices manufactured by Intel and sold by Intel or its 
authorized distributors.  Please refer to the applicable 
agreement for further details.
$end

$date 
  12/20/2022 23:40:29 
$end
$version 
 QUARTUS_VCD_EXPORT 1.0 
$end
$timescale
  1 ps
$end
$scope module emu $end
$scope module xlc $end
$var reg 1 ! CLK $end
$var reg 1 " CPU_turbo_mode[5] $end
$var reg 1 # CPU_turbo_mode[4] $end
$var reg 1 $ CPU_turbo_mode[3] $end
$var reg 1 % CPU_turbo_mode[2] $end
$var reg 1 & CPU_turbo_mode[1] $end
$var reg 1 ' CPU_turbo_mode[0] $end
$var reg 1 ( _HCLKn $end
$var reg 1 ) _HCLK $end
$var reg 1 * M1H $end
$var reg 1 + M1Hn $end
$var reg 1 , M2H $end
$var reg 1 - M2Hn $end
$var reg 1 . HCLKn_CEN $end
$var reg 1 / CLK12_CEN $end
$var reg 1 0 CE_PIXEL $end
$var reg 1 1 PIX_CLK $end
$scope module mcpu_cen $end
$var reg 1 2 m[7] $end
$var reg 1 3 m[6] $end
$var reg 1 4 m[5] $end
$var reg 1 5 m[4] $end
$var reg 1 6 m[3] $end
$var reg 1 7 m[2] $end
$var reg 1 8 m[1] $end
$var reg 1 9 m[0] $end
$var reg 1 : n[7] $end
$var reg 1 ; n[6] $end
$var reg 1 < n[5] $end
$var reg 1 = n[4] $end
$var reg 1 > n[3] $end
$var reg 1 ? n[2] $end
$var reg 1 @ n[1] $end
$var reg 1 A n[0] $end
$var reg 1 B \cen[0]~reg0  $end
$var reg 1 C \cenb[0]~reg0  $end
$var reg 1 D \cen[1]~reg0  $end
$var reg 1 E \cenb[1]~reg0  $end
$var reg 1 F \cen[2]~reg0  $end
$var reg 1 G \cenb[2]~reg0  $end
$upscope $end
$scope module scpu_cen $end
$var reg 1 H m[7] $end
$var reg 1 I m[6] $end
$var reg 1 J m[5] $end
$var reg 1 K m[4] $end
$var reg 1 L m[3] $end
$var reg 1 M m[2] $end
$var reg 1 N m[1] $end
$var reg 1 O m[0] $end
$var reg 1 P n[7] $end
$var reg 1 Q n[6] $end
$var reg 1 R n[5] $end
$var reg 1 S n[4] $end
$var reg 1 T n[3] $end
$var reg 1 U n[2] $end
$var reg 1 V n[1] $end
$var reg 1 W n[0] $end
$var reg 1 X \cen[0]~reg0  $end
$var reg 1 Y \cen[1]~reg0  $end
$var reg 1 Z \cen[2]~reg0  $end
$var reg 1 [ \cenb[0]~reg0  $end
$var reg 1 \ \cenb[1]~reg0  $end
$var reg 1 ] \cenb[2]~reg0  $end
$upscope $end
$upscope $end
$upscope $end
$enddefinitions $end
#0
$dumpvars
0!
X"
X#
X$
X%
X&
X'
X(
X)
X*
X+
X,
X-
X.
X/
X0
X1
X2
X3
X4
X5
X6
X7
X8
X9
X:
X;
X<
X=
X>
X?
X@
XA
XB
XC
XD
XE
XF
XG
XH
XI
XJ
XK
XL
XM
XN
XO
XP
XQ
XR
XS
XT
XU
XV
XW
XX
XY
XZ
X[
X\
X]
$end
#10416
$comment Sample -128 (Start) $end
0"
0#
0$
0%
0&
0'
0(
1)
0*
1+
0,
1-
0.
0/
00
01
02
03
04
05
16
07
08
09
0:
0;
0<
0=
0>
0?
0@
1A
0B
0C
0D
0E
0F
0G
0H
0I
0J
0K
1L
0M
0N
0O
0P
0Q
0R
0S
0T
0U
0V
1W
0X
0Y
0Z
0[
0\
0]
#10417
1!
#20833
0!
#31250
1!
#41666
0!
#52082
1/
1B
1D
1X
1Y
#52083
1!
#62499
0!
#72915
1(
0)
1*
0+
1.
0/
10
11
0B
0D
0X
0Y
#72916
1!
#83332
0!
#93748
0.
00
#93749
1!
#104165
0!
#114582
1!
#124998
0!
#135414
1/
1C
1G
1[
1]
#135415
1!
#145831
0!
#156247
0(
1)
0/
01
0C
0G
0[
0]
#156248
1!
#166664
0!
#177081
1!
#187497
0!
#197914
1!
#208330
0!
#218746
1/
1B
1F
1X
1Z
#218747
1!
#229163
0!
#239579
1(
0)
0*
1+
1,
0-
1.
0/
10
11
0B
0F
0X
0Z
#239580
1!
#249996
0!
#260412
0.
00
#260413
1!
#270829
0!
#281246
1!
#291662
0!
#302078
1/
1C
1E
1[
1\
#302079
1!
#312495
0!
#322911
0(
1)
0/
01
0C
0E
0[
0\
#322912
1!
#333328
0!
#343745
1!
#354161
0!
#364578
1!
#374994
0!
#385410
1/
1B
1D
1X
1Y
#385411
1!
#395827
0!
#406243
1(
0)
1*
0+
1.
0/
10
11
0B
0D
0X
0Y
#406244
1!
#416660
0!
#427076
0.
00
#427077
1!
#437493
0!
#447910
1!
#458326
0!
#468742
1/
1C
1[
#468743
1!
#479159
0!
#489575
0(
1)
0/
01
0C
0[
#489576
1!
#499992
0!
#510409
1!
#520825
0!
#531242
1!
#541658
0!
#552074
1/
1B
1X
#552075
1!
#562491
0!
#572907
1(
0)
0*
1+
0,
1-
1.
0/
10
11
0B
0X
#572908
1!
#583324
0!
#593740
0.
00
#593741
1!
#604157
0!
#614574
1!
#624990
0!
#635406
1/
1C
1E
1[
1\
#635407
1!
#645823
0!
#656239
0(
1)
0/
01
0C
0E
0[
0\
#656240
1!
#666656
0!
#677073
1!
#687489
0!
#697906
1!
#708322
0!
#718738
1/
1B
1D
1X
1Y
#718739
1!
#729155
0!
#739571
1(
0)
1*
0+
1.
0/
10
11
0B
0D
0X
0Y
#739572
1!
#749988
0!
#760404
0.
00
#760405
1!
#770821
0!
#781238
1!
#791654
0!
#802070
1/
1C
1G
1[
1]
#802071
1!
#812487
0!
#822903
0(
1)
0/
01
0C
0G
0[
0]
#822904
1!
#833320
0!
#843737
1!
#854153
0!
#864570
1!
#874986
0!
#885402
1/
1B
1F
1X
1Z
#885403
1!
#895819
0!
#906235
1(
0)
0*
1+
1,
0-
1.
0/
10
11
0B
0F
0X
0Z
#906236
1!
#916652
0!
#927068
0.
00
#927069
1!
#937485
0!
#947902
1!
#958318
0!
#968734
1/
1C
1E
1[
1\
#968735
1!
#979151
0!
#989567
0(
1)
0/
01
0C
0E
0[
0\
#989568
1!
#999984
0!
#1010401
1!
#1020817
0!
#1031234
1!
#1041650
0!
#1052066
1/
1B
1D
1X
1Y
#1052067
1!
#1062483
0!
#1072899
1(
0)
1*
0+
1.
0/
10
11
0B
0D
0X
0Y
#1072900
1!
#1083316
0!
#1093732
0.
00
#1093733
1!
#1104149
0!
#1114566
1!
#1124982
0!
#1135398
1/
1C
1[
#1135399
1!
#1145815
0!
#1156231
0(
1)
0/
01
0C
0[
#1156232
1!
#1166648
0!
#1177065
1!
#1187481
0!
#1197898
1!
#1208314
0!
#1218730
1/
1B
1X
#1218731
1!
#1229147
0!
#1239563
1(
0)
0*
1+
0,
1-
1.
0/
10
11
0B
0X
#1239564
1!
#1249980
0!
#1260396
0.
00
#1260397
1!
#1270813
0!
#1281230
1!
#1291646
0!
#1302062
1/
1C
1E
1[
1\
#1302063
1!
#1312479
0!
#1322895
0(
1)
0/
01
0C
0E
0[
0\
#1322896
1!
#1333312
0!
#1343729
1!
#1354145
0!
#1364562
1!
#1374978
0!
#1385394
1/
1B
1D
1X
1Y
#1385395
1!
#1395811
0!
#1406227
1(
0)
1*
0+
1.
0/
10
11
0B
0D
0X
0Y
#1406228
1!
#1416644
0!
#1427060
0.
00
#1427061
1!
#1437477
0!
#1447894
1!
#1458310
0!
#1468726
1/
1C
1G
1[
1]
#1468727
1!
#1479143
0!
#1489559
0(
1)
0/
01
0C
0G
0[
0]
#1489560
1!
#1499976
0!
#1510393
1!
#1520809
0!
#1531226
1!
#1541642
0!
#1552058
1/
1B
1F
1X
1Z
#1552059
1!
#1562475
0!
#1572891
1(
0)
0*
1+
1,
0-
1.
0/
10
11
0B
0F
0X
0Z
#1572892
1!
#1583308
0!
#1593724
0.
00
#1593725
1!
#1604141
0!
#1614558
1!
#1624974
0!
#1635390
1/
1C
1E
1[
1\
#1635391
1!
#1645807
0!
#1656223
0(
1)
0/
01
0C
0E
0[
0\
#1656224
1!
#1666640
0!
#1677057
1!
#1687473
0!
#1697890
1!
#1708306
0!
#1718722
1/
1B
1D
1X
1Y
#1718723
1!
#1729139
0!
#1739555
1(
0)
1*
0+
1.
0/
10
11
0B
0D
0X
0Y
#1739556
1!
#1749972
0!
#1760388
0.
00
#1760389
1!
#1770805
0!
#1781222
1!
#1791638
0!
#1802054
1/
1C
1[
#1802055
1!
#1812471
0!
#1822887
0(
1)
0/
01
0C
0[
#1822888
1!
#1833304
0!
#1843721
1!
#1854137
0!
#1864554
1!
#1874970
0!
#1885386
1/
1B
1X
#1885387
1!
#1895803
0!
#1906219
1(
0)
0*
1+
0,
1-
1.
0/
10
11
0B
0X
#1906220
1!
#1916636
0!
#1927052
0.
00
#1927053
1!
#1937469
0!
#1947886
1!
#1958302
0!
#1968718
1/
1C
1E
1[
1\
#1968719
1!
#1979135
0!
#1989551
0(
1)
0/
01
0C
0E
0[
0\
#1989552
1!
#1999968
0!
#2010385
1!
#2020801
0!
#2031218
1!
#2041634
0!
#2052050
1/
1B
1D
1X
1Y
#2052051
1!
#2062467
0!
#2072883
1(
0)
1*
0+
1.
0/
10
11
0B
0D
0X
0Y
#2072884
1!
#2083300
0!
#2093716
0.
00
#2093717
1!
#2104133
0!
#2114550
1!
#2124966
0!
#2135382
1/
1C
1G
1[
1]
#2135383
1!
#2145799
0!
#2156215
0(
1)
0/
01
0C
0G
0[
0]
#2156216
1!
#2166632
0!
#2177049
1!
#2187465
0!
#2197882
1!
#2208298
0!
#2218714
1/
1B
1F
1X
1Z
#2218715
1!
#2229131
0!
#2239547
1(
0)
0*
1+
1,
0-
1.
0/
10
11
0B
0F
0X
0Z
#2239548
1!
#2249964
0!
#2260380
0.
00
#2260381
1!
#2270797
0!
#2281214
1!
#2291630
0!
#2302046
1/
1C
1E
1[
1\
#2302047
1!
#2312463
0!
#2322879
0(
1)
0/
01
0C
0E
0[
0\
#2322880
1!
#2333296
0!
#2343713
1!
#2354129
0!
#2364546
1!
#2374962
0!
#2385378
1/
1B
1D
1X
1Y
#2385379
1!
#2395795
0!
#2406211
1(
0)
1*
0+
1.
0/
10
11
0B
0D
0X
0Y
#2406212
1!
#2416628
0!
#2427044
0.
00
#2427045
1!
#2437461
0!
#2447878
1!
#2458294
0!
#2468710
1/
1C
1[
#2468711
1!
#2479127
0!
#2489543
0(
1)
0/
01
0C
0[
#2489544
1!
#2499960
0!
#2510377
1!
#2520793
0!
#2531210
1!
#2541626
0!
#2552042
1/
1B
1X
#2552043
1!
#2562459
0!
#2572875
1(
0)
0*
1+
0,
1-
1.
0/
10
11
0B
0X
#2572876
1!
#2583292
0!
#2593708
0.
00
#2593709
1!
#2604125
0!
#2614542
1!
#2624958
0!
#2635374
1/
1C
1E
1[
1\
#2635375
1!
#2645791
0!
#2656207
0(
1)
0/
01
0C
0E
0[
0\
#2656208
1!
#2666624
0!
#2677041
1!
#2687457
0!
#2697874
1!
#2708290
0!
#2718706
1/
1B
1D
1X
1Y
#2718707
1!
#2729123
0!
#2739539
1(
0)
1*
0+
1.
0/
10
11
0B
0D
0X
0Y
#2739540
1!
#2749956
0!
#2760372
0.
00
#2760373
1!
#2770789
0!
#2781206
1!
#2791622
0!
#2802038
1/
1C
1G
1[
1]
#2802039
1!
#2812455
0!
#2822871
0(
1)
0/
01
0C
0G
0[
0]
#2822872
1!
#2833288
0!
#2843705
1!
#2854121
0!
#2864538
1!
#2874954
0!
#2885370
1/
1B
1F
1X
1Z
#2885371
1!
#2895787
0!
#2906203
1(
0)
0*
1+
1,
0-
1.
0/
10
11
0B
0F
0X
0Z
#2906204
1!
#2916620
0!
#2927036
0.
00
#2927037
1!
#2937453
0!
#2947870
1!
#2958286
0!
#2968702
1/
1C
1E
1[
1\
#2968703
1!
#2979119
0!
#2989535
0(
1)
0/
01
0C
0E
0[
0\
#2989536
1!
#2999952
0!
#3010369
1!
#3020785
0!
#3031202
1!
#3041618
0!
#3052034
1/
1B
1D
1X
1Y
#3052035
1!
#3062451
0!
#3072867
1(
0)
1*
0+
1.
0/
10
11
0B
0D
0X
0Y
#3072868
1!
#3083284
0!
#3093700
0.
00
#3093701
1!
#3104117
0!
#3114534
1!
#3124950
0!
#3135366
1/
1C
1[
#3135367
1!
#3145783
0!
#3156199
0(
1)
0/
01
0C
0[
#3156200
1!
#3166616
0!
#3177033
1!
#3187449
0!
#3197866
1!
#3208282
0!
#3218698
1/
1B
1X
#3218699
1!
#3229115
0!
#3239531
1(
0)
0*
1+
0,
1-
1.
0/
10
11
0B
0X
#3239532
1!
#3249948
0!
#3260364
0.
00
#3260365
1!
#3270781
0!
#3281198
1!
#3291614
0!
#3302030
1/
1C
1E
1[
1\
#3302031
1!
#3312447
0!
#3322863
0(
1)
0/
01
0C
0E
0[
0\
#3322864
1!
#3333280
0!
#3343697
1!
#3354113
0!
#3364530
1!
#3374946
0!
#3385362
1/
1B
1D
1X
1Y
#3385363
1!
#3395779
0!
#3406195
1(
0)
1*
0+
1.
0/
10
11
0B
0D
0X
0Y
#3406196
1!
#3416612
0!
#3427028
0.
00
#3427029
1!
#3437445
0!
#3447862
1!
#3458278
0!
#3468694
1/
1C
1G
1[
1]
#3468695
1!
#3479111
0!
#3489527
0(
1)
0/
01
0C
0G
0[
0]
#3489528
1!
#3499944
0!
#3510361
1!
#3520777
0!
#3531194
1!
#3541610
0!
#3552026
1/
1B
1F
1X
1Z
#3552027
1!
#3562443
0!
#3572859
1(
0)
0*
1+
1,
0-
1.
0/
10
11
0B
0F
0X
0Z
#3572860
1!
#3583276
0!
#3593692
0.
00
#3593693
1!
#3604109
0!
#3614526
1!
#3624942
0!
#3635358
1/
1C
1E
1[
1\
#3635359
1!
#3645775
0!
#3656191
0(
1)
0/
01
0C
0E
0[
0\
#3656192
1!
#3666608
0!
#3677025
1!
#3687441
0!
#3697858
1!
#3708274
0!
#3718690
1/
1B
1D
1X
1Y
#3718691
1!
#3729107
0!
#3739523
1(
0)
1*
0+
1.
0/
10
11
0B
0D
0X
0Y
#3739524
1!
#3749940
0!
#3760356
0.
00
#3760357
1!
#3770773
0!
#3781190
1!
#3791606
0!
#3802022
1/
1C
1[
#3802023
1!
#3812439
0!
#3822855
0(
1)
0/
01
0C
0[
#3822856
1!
#3833272
0!
#3843689
1!
#3854105
0!
#3864522
1!
#3874938
0!
#3885354
1/
1B
1X
#3885355
1!
#3895771
0!
#3906187
1(
0)
0*
1+
0,
1-
1.
0/
10
11
0B
0X
#3906188
1!
#3916604
0!
#3927020
0.
00
#3927021
1!
#3937437
0!
#3947854
1!
#3958270
0!
#3968686
1/
1C
1E
1[
1\
#3968687
1!
#3979103
0!
#3989519
0(
1)
0/
01
0C
0E
0[
0\
#3989520
1!
#3999936
0!
#4010353
1!
#4020769
0!
#4031186
1!
#4041602
0!
#4052018
1/
1B
1D
1X
1Y
#4052019
1!
#4062435
0!
#4072851
1(
0)
1*
0+
1.
0/
10
11
0B
0D
0X
0Y
#4072852
1!
#4083268
0!
#4093684
0.
00
#4093685
1!
#4104101
0!
#4114518
1!
#4124934
0!
#4135350
1/
1C
1G
1[
1]
#4135351
1!
#4145767
0!
#4156183
0(
1)
0/
01
0C
0G
0[
0]
#4156184
1!
#4166600
0!
#4177017
1!
#4187433
0!
#4197850
1!
#4208266
0!
#4218682
1/
1B
1F
1X
1Z
#4218683
1!
#4229099
0!
#4239515
1(
0)
0*
1+
1,
0-
1.
0/
10
11
0B
0F
0X
0Z
#4239516
1!
#4249932
0!
#4260348
0.
00
#4260349
1!
#4270765
0!
#4281182
1!
#4291598
0!
#4302014
1/
1C
1E
1[
1\
#4302015
1!
#4312431
0!
#4322847
0(
1)
0/
01
0C
0E
0[
0\
#4322848
1!
#4333264
0!
#4343681
1!
#4354097
0!
#4364514
1!
#4374930
0!
#4385346
1/
1B
1D
1X
1Y
#4385347
1!
#4395763
0!
#4406179
1(
0)
1*
0+
1.
0/
10
11
0B
0D
0X
0Y
#4406180
1!
#4416596
0!
#4427012
0.
00
#4427013
1!
#4437429
0!
#4447846
1!
#4458262
0!
#4468678
1/
1C
1[
#4468679
1!
#4479095
0!
#4489511
0(
1)
0/
01
0C
0[
#4489512
1!
#4499928
0!
#4510345
1!
#4520761
0!
#4531178
1!
#4541594
0!
#4552010
1/
1B
1X
#4552011
1!
#4562427
0!
#4572843
1(
0)
0*
1+
0,
1-
1.
0/
10
11
0B
0X
#4572844
1!
#4583260
0!
#4593676
0.
00
#4593677
1!
#4604093
0!
#4614510
1!
#4624926
0!
#4635342
1/
1C
1E
1[
1\
#4635343
1!
#4645759
0!
#4656175
0(
1)
0/
01
0C
0E
0[
0\
#4656176
1!
#4666592
0!
#4677009
1!
#4687425
0!
#4697842
1!
#4708258
0!
#4718674
1/
1B
1D
1X
1Y
#4718675
1!
#4729091
0!
#4739507
1(
0)
1*
0+
1.
0/
10
11
0B
0D
0X
0Y
#4739508
1!
#4749924
0!
#4760340
0.
00
#4760341
1!
#4770757
0!
#4781174
1!
#4791590
0!
#4802006
1/
1C
1G
1[
1]
#4802007
1!
#4812423
0!
#4822839
0(
1)
0/
01
0C
0G
0[
0]
#4822840
1!
#4833256
0!
#4843673
1!
#4854089
0!
#4864506
1!
#4874922
0!
#4885338
1/
1B
1F
1X
1Z
#4885339
1!
#4895755
0!
#4906171
1(
0)
0*
1+
1,
0-
1.
0/
10
11
0B
0F
0X
0Z
#4906172
1!
#4916588
0!
#4927004
0.
00
#4927005
1!
#4937421
0!
#4947838
1!
#4958254
0!
#4968670
1/
1C
1E
1[
1\
#4968671
1!
#4979087
0!
#4989503
0(
1)
0/
01
0C
0E
0[
0\
#4989504
1!
#4999920
0!
#5010337
1!
#5020753
0!
#5031170
1!
#5041586
0!
#5052002
1/
1B
1D
1X
1Y
#5052003
1!
#5062419
0!
#5072835
1(
0)
1*
0+
1.
0/
10
11
0B
0D
0X
0Y
#5072836
1!
#5083252
0!
#5093668
0.
00
#5093669
1!
#5104085
0!
#5114502
1!
#5124918
0!
#5135334
1/
1C
1[
#5135335
1!
#5145751
0!
#5156167
0(
1)
0/
01
0C
0[
#5156168
1!
#5166584
0!
#5177001
1!
#5187417
0!
#5197834
1!
#5208250
0!
#5218666
1/
1B
1X
#5218667
1!
#5229083
0!
#5239499
1(
0)
0*
1+
0,
1-
1.
0/
10
11
0B
0X
#5239500
1!
#5249916
0!
#5260332
0.
00
#5260333
1!
#5270749
0!
#5281166
1!
#5291582
0!
#5301998
1/
1C
1E
1[
1\
#5301999
1!
#5312415
0!
#5322831
0(
1)
0/
01
0C
0E
0[
0\
#5322832
1!
#5333248
0!
#5343665
1!
#5354081
0!
#5364498
1!
#5374914
0!
#5385330
1/
1B
1D
1X
1Y
#5385331
1!
#5395747
0!
#5406163
1(
0)
1*
0+
1.
0/
10
11
0B
0D
0X
0Y
#5406164
1!
#5416580
0!
#5426996
0.
00
#5426997
1!
#5437413
0!
#5447830
1!
#5458246
0!
#5468662
1/
1C
1G
1[
1]
#5468663
1!
#5479079
0!
#5489495
0(
1)
0/
01
0C
0G
0[
0]
#5489496
1!
#5499912
0!
#5510329
1!
#5520745
0!
#5531162
1!
#5541578
0!
#5551994
1/
1B
1F
1X
1Z
#5551995
1!
#5562411
0!
#5572827
1(
0)
0*
1+
1,
0-
1.
0/
10
11
0B
0F
0X
0Z
#5572828
1!
#5583244
0!
#5593660
0.
00
#5593661
1!
#5604077
0!
#5614494
1!
#5624910
0!
#5635326
1/
1C
1E
1[
1\
#5635327
1!
#5645743
0!
#5656159
0(
1)
0/
01
0C
0E
0[
0\
#5656160
1!
#5666576
0!
#5676993
1!
#5687409
0!
#5697826
1!
#5708242
0!
#5718658
1/
1B
1D
1X
1Y
#5718659
1!
#5729075
0!
#5739491
1(
0)
1*
0+
1.
0/
10
11
0B
0D
0X
0Y
#5739492
1!
#5749908
0!
#5760324
0.
00
#5760325
1!
#5770741
0!
#5781158
1!
#5791574
0!
#5801990
1/
1C
1[
#5801991
1!
#5812407
0!
#5822823
0(
1)
0/
01
0C
0[
#5822824
1!
#5833240
0!
#5843657
1!
#5854073
0!
#5864490
1!
#5874906
0!
#5885322
1/
1B
1X
#5885323
1!
#5895739
0!
#5906155
1(
0)
0*
1+
0,
1-
1.
0/
10
11
0B
0X
#5906156
1!
#5916572
0!
#5926988
0.
00
#5926989
1!
#5937405
0!
#5947822
1!
#5958238
0!
#5968654
1/
1C
1E
1[
1\
#5968655
1!
#5979071
0!
#5989487
0(
1)
0/
01
0C
0E
0[
0\
#5989488
1!
#5999904
0!
#6010321
1!
#6020737
0!
#6031154
1!
#6041570
0!
#6051986
1/
1B
1D
1X
1Y
#6051987
1!
#6062403
0!
#6072819
1(
0)
1*
0+
1.
0/
10
11
0B
0D
0X
0Y
#6072820
1!
#6083236
0!
#6093652
0.
00
#6093653
1!
#6104069
0!
#6114486
1!
#6124902
0!
#6135318
1/
1C
1G
1[
1]
#6135319
1!
#6145735
0!
#6156151
0(
1)
0/
01
0C
0G
0[
0]
#6156152
1!
#6166568
0!
#6176985
1!
#6187401
0!
#6197818
1!
#6208234
0!
#6218650
1/
1B
1F
1X
1Z
#6218651
1!
#6229067
0!
#6239483
1(
0)
0*
1+
1,
0-
1.
0/
10
11
0B
0F
0X
0Z
#6239484
1!
#6249900
0!
#6260316
0.
00
#6260317
1!
#6270733
0!
#6281150
1!
#6291566
0!
#6301982
1/
1C
1E
1[
1\
#6301983
1!
#6312399
0!
#6322815
0(
1)
0/
01
0C
0E
0[
0\
#6322816
1!
#6333232
0!
#6343649
1!
#6354065
0!
#6364482
1!
#6374898
0!
#6385314
1/
1B
1D
1X
1Y
#6385315
1!
#6395731
0!
#6406147
1(
0)
1*
0+
1.
0/
10
11
0B
0D
0X
0Y
#6406148
1!
#6416564
0!
#6426980
0.
00
#6426981
1!
#6437397
0!
#6447814
1!
#6458230
0!
#6468646
1/
1C
1[
#6468647
1!
#6479063
0!
#6489479
0(
1)
0/
01
0C
0[
#6489480
1!
#6499896
0!
#6510313
1!
#6520729
0!
#6531146
1!
#6541562
0!
#6551978
1/
1B
1X
#6551979
1!
#6562395
0!
#6572811
1(
0)
0*
1+
0,
1-
1.
0/
10
11
0B
0X
#6572812
1!
#6583228
0!
#6593644
0.
00
#6593645
1!
#6604061
0!
#6614478
1!
#6624894
0!
#6635310
1/
1C
1E
1[
1\
#6635311
1!
#6645727
0!
#6656143
0(
1)
0/
01
0C
0E
0[
0\
#6656144
1!
#6666560
0!
#6676977
1!
#6687393
0!
#6697810
1!
#6708226
0!
#6718642
1/
1B
1D
1X
1Y
#6718643
1!
#6729059
0!
#6739475
1(
0)
1*
0+
1.
0/
10
11
0B
0D
0X
0Y
#6739476
1!
#6749892
0!
#6760308
0.
00
#6760309
1!
#6770725
0!
#6781142
1!
#6791558
0!
#6801974
1/
1C
1G
1[
1]
#6801975
1!
#6812391
0!
#6822807
0(
1)
0/
01
0C
0G
0[
0]
#6822808
1!
#6833224
0!
#6843641
1!
#6854057
0!
#6864474
1!
#6874890
0!
#6885306
1/
1B
1F
1X
1Z
#6885307
1!
#6895723
0!
#6906139
1(
0)
0*
1+
1,
0-
1.
0/
10
11
0B
0F
0X
0Z
#6906140
1!
#6916556
0!
#6926972
0.
00
#6926973
1!
#6937389
0!
#6947806
1!
#6958222
0!
#6968638
1/
1C
1E
1[
1\
#6968639
1!
#6979055
0!
#6989471
0(
1)
0/
01
0C
0E
0[
0\
#6989472
1!
#6999888
0!
#7010305
1!
#7020721
0!
#7031138
1!
#7041554
0!
#7051970
1/
1B
1D
1X
1Y
#7051971
1!
#7062387
0!
#7072803
1(
0)
1*
0+
1.
0/
10
11
0B
0D
0X
0Y
#7072804
1!
#7083220
0!
#7093636
0.
00
#7093637
1!
#7104053
0!
#7114470
1!
#7124886
0!
#7135302
1/
1C
1[
#7135303
1!
#7145719
0!
#7156135
0(
1)
0/
01
0C
0[
#7156136
1!
#7166552
0!
#7176969
1!
#7187385
0!
#7197802
1!
#7208218
0!
#7218634
1/
1B
1X
#7218635
1!
#7229051
0!
#7239467
1(
0)
0*
1+
0,
1-
1.
0/
10
11
0B
0X
#7239468
1!
#7249884
0!
#7260300
0.
00
#7260301
1!
#7270717
0!
#7281134
1!
#7291550
0!
#7301966
1/
1C
1E
1[
1\
#7301967
1!
#7312383
0!
#7322799
0(
1)
0/
01
0C
0E
0[
0\
#7322800
1!
#7333216
0!
#7343633
1!
#7354049
0!
#7364466
1!
#7374882
0!
#7385298
1/
1B
1D
1X
1Y
#7385299
1!
#7395715
0!
#7406131
1(
0)
1*
0+
1.
0/
10
11
0B
0D
0X
0Y
#7406132
1!
#7416548
0!
#7426964
0.
00
#7426965
1!
#7437381
0!
#7447798
1!
#7458214
0!
#7468630
1/
1C
1G
1[
1]
#7468631
1!
#7479047
0!
#7489463
0(
1)
0/
01
0C
0G
0[
0]
#7489464
1!
#7499880
0!
#7510297
1!
#7520713
0!
#7531130
1!
#7541546
0!
#7551962
1/
1B
1F
1X
1Z
#7551963
1!
#7562379
0!
#7572795
1(
0)
0*
1+
1,
0-
1.
0/
10
11
0B
0F
0X
0Z
#7572796
1!
#7583212
0!
#7593628
0.
00
#7593629
1!
#7604045
0!
#7614462
1!
#7624878
0!
#7635294
1/
1C
1E
1[
1\
#7635295
1!
#7645711
0!
#7656127
0(
1)
0/
01
0C
0E
0[
0\
#7656128
1!
#7666544
0!
#7676961
1!
#7687377
0!
#7697794
1!
#7708210
0!
#7718626
1/
1B
1D
1X
1Y
#7718627
1!
#7729043
0!
#7739459
1(
0)
1*
0+
1.
0/
10
11
0B
0D
0X
0Y
#7739460
1!
#7749876
0!
#7760292
0.
00
#7760293
1!
#7770709
0!
#7781126
1!
#7791542
0!
#7801958
1/
1C
1[
#7801959
1!
#7812375
0!
#7822791
0(
1)
0/
01
0C
0[
#7822792
1!
#7833208
0!
#7843625
1!
#7854041
0!
#7864458
1!
#7874874
0!
#7885290
1/
1B
1X
#7885291
1!
#7895707
0!
#7906123
1(
0)
0*
1+
0,
1-
1.
0/
10
11
0B
0X
#7906124
1!
#7916540
0!
#7926956
0.
00
#7926957
1!
#7937373
0!
#7947790
1!
#7958206
0!
#7968622
1/
1C
1E
1[
1\
#7968623
1!
#7979039
0!
#7989455
0(
1)
0/
01
0C
0E
0[
0\
#7989456
1!
#7999872
0!
#8010289
1!
#8020705
0!
#8031122
1!
#8041538
0!
#8051954
1/
1B
1D
1X
1Y
#8051955
1!
#8062371
0!
#8072787
1(
0)
1*
0+
1.
0/
10
11
0B
0D
0X
0Y
#8072788
1!
#8083204
0!
#8093620
0.
00
#8093621
1!
#8104037
0!
#8114454
1!
#8124870
0!
#8135286
1/
1C
1G
1[
1]
#8135287
1!
#8145703
0!
#8156119
0(
1)
0/
01
0C
0G
0[
0]
#8156120
1!
#8166536
0!
#8176953
1!
#8187369
0!
#8197786
1!
#8208202
0!
#8218618
1/
1B
1F
1X
1Z
#8218619
1!
#8229035
0!
#8239451
1(
0)
0*
1+
1,
0-
1.
0/
10
11
0B
0F
0X
0Z
#8239452
1!
#8249868
0!
#8260284
0.
00
#8260285
1!
#8270701
0!
#8281118
1!
#8291534
0!
#8301950
1/
1C
1E
1[
1\
#8301951
1!
#8312367
0!
#8322783
0(
1)
0/
01
0C
0E
0[
0\
#8322784
1!
#8333200
0!
#8343617
1!
#8354033
0!
#8364450
1!
#8374866
0!
#8385282
1/
1B
1D
1X
1Y
#8385283
1!
#8395699
0!
#8406115
1(
0)
1*
0+
1.
0/
10
11
0B
0D
0X
0Y
#8406116
1!
#8416532
0!
#8426948
0.
00
#8426949
1!
#8437365
0!
#8447782
1!
#8458198
0!
#8468614
1/
1C
1[
#8468615
1!
#8479031
0!
#8489447
0(
1)
0/
01
0C
0[
#8489448
1!
#8499864
0!
#8510281
1!
#8520697
0!
#8531114
1!
#8541530
0!
#8551946
1/
1B
1X
#8551947
1!
#8562363
0!
#8572779
1(
0)
0*
1+
0,
1-
1.
0/
10
11
0B
0X
#8572780
1!
#8583196
0!
#8593612
0.
00
#8593613
1!
#8604029
0!
#8614446
1!
#8624862
0!
#8635278
1/
1C
1E
1[
1\
#8635279
1!
#8645695
0!
#8656111
0(
1)
0/
01
0C
0E
0[
0\
#8656112
1!
#8666528
0!
#8676945
1!
#8687361
0!
#8697778
1!
#8708194
0!
#8718610
1/
1B
1D
1X
1Y
#8718611
1!
#8729027
0!
#8739443
1(
0)
1*
0+
1.
0/
10
11
0B
0D
0X
0Y
#8739444
1!
#8749860
0!
#8760276
0.
00
#8760277
1!
#8770693
0!
#8781110
1!
#8791526
0!
#8801942
1/
1C
1G
1[
1]
#8801943
1!
#8812359
0!
#8822775
0(
1)
0/
01
0C
0G
0[
0]
#8822776
1!
#8833192
0!
#8843609
1!
#8854025
0!
#8864442
1!
#8874858
0!
#8885274
1/
1B
1F
1X
1Z
#8885275
1!
#8895691
0!
#8906107
1(
0)
0*
1+
1,
0-
1.
0/
10
11
0B
0F
0X
0Z
#8906108
1!
#8916524
0!
#8926940
0.
00
#8926941
1!
#8937357
0!
#8947774
1!
#8958190
0!
#8968606
1/
1C
1E
1[
1\
#8968607
1!
#8979023
0!
#8989439
0(
1)
0/
01
0C
0E
0[
0\
#8989440
1!
#8999856
0!
#9010273
1!
#9020689
0!
#9031106
1!
#9041522
0!
